{
  "parent": "glacialabyss:enter_glacial_abyss",
  "display": {
    "icon": {
      "item": "glacialabyss:phantom_soul"
    },
    "title": {
      "translate": "advancements.glacialabyss.defeat_phantasm.title"
    },
    "description": {
      "translate": "advancements.glacialabyss.defeat_phantasm.description"
    },
    "frame": "task",
    "show_toast": true,
    "announce_to_chat": true,
    "hidden": false
  },
  "criteria": {
    "killed_phantasm": {
      "trigger": "minecraft:player_killed_entity",
      "conditions": {
        "entity": [
          {
            "condition": "minecraft:entity_properties",
            "predicate": {
              "type": "glacialabyss:phantasm"
            },
            "entity": "this"
          }
        ]
      }
    }
  },
  "requirements": [
    [
      "killed_phantasm"
    ]
  ]
}