{
  "display": {
    "icon": {
      "item": "glacialabyss:charged_abyssal_block"
    },
    "title": {
      "translate": "advancements.glacialabyss.root.title"
    },
    "description": {
      "translate": "advancements.glacialabyss.root.description"
    },
    "frame": "task",
    "show_toast": false,
    "announce_to_chat": false,
    "hidden": false,
    "background": "glacialabyss:textures/block/abyssal_block.png"
  },
  "criteria": {
    "unstable_abyss": {
      "trigger": "minecraft:inventory_changed",
      "conditions": {
        "items": [
          {
            "items": [
              "glacialabyss:unstable_abyss"
            ]
          }
        ]
      }
    }
  },
  "requirements": [
    [
      "unstable_abyss"
    ]
  ]
}