{
  "required": true,
  "minVersion": "0.8",
  "package": "ml.darubyminer360.glacialabyss.mixin",
  "compatibilityLevel": "JAVA_17",
  "mixins": [
    "PlayerEntityMixin",
    "LivingEntityMixin",
    "EntityMixin",
    "ItemMixin",
    "SignTypeAccessor",
    "BlockEntityTypeMixin",
    "StructureFeatureAccessor"
  ],
  "client": [
    "RendererMixin",
    "ArmorFeatureRendererMixin",
    "HeadFeatureRendererMixin"
  ],
  "server": [
  ],
  "injectors": {
    "defaultRequire": 1
  }
}
