{
  "type": "minecraft:crafting_shaped",
  "pattern": [
    "###",
    "###",
    "###"
  ],
  "key": {
    "#": {
      "item": "glacialabyss:abyssal_ingot"
    }
  },
  "result": {
    "item": "glacialabyss:abyssal_block"
  }
}