{
  "type": "minecraft:smithing",
  "base": {
    "item": "glacialabyss:charged_abyssal_dust"
  },
  "addition": {
    "item": "minecraft:netherite_ingot"
  },
  "result": {
    "item": "glacialabyss:abyssal_ingot"
  }
}