{
  "type": "minecraft:crafting_shapeless",
  "ingredients": [
    {
      "item": "minecraft:redstone"
    },
    {
      "item": "minecraft:gold_ingot"
    },
    {
      "item": "minecraft:iron_ingot"
    },
    {
      "item": "minecraft:diamond"
    },
    {
      "item": "minecraft:netherite_ingot"
    },
    {
      "item": "glacialabyss:abyssal_dust"
    },
    {
      "item": "glacialabyss:abyssal_dust"
    },
    {
      "item": "glacialabyss:abyssal_dust"
    },
    {
      "item": "glacialabyss:abyssal_dust"
    }
  ],
  "result": {
    "item": "glacialabyss:charged_abyssal_dust"
  }
}