{
  "type": "minecraft:crafting_shaped",
  "pattern": [
    "GGG",
    "GHG",
    "GKG"
  ],
  "key": {
    "H": {
      "item": "glacialabyss:phantom_heart"
    },
    "K": {
      "item": "glacialabyss:abyssal_key"
    },
    "G": {
      "item": "minecraft:tinted_glass"
    }
  },
  "result": {
    "item": "glacialabyss:contained_phantom_heart"
  }
}