{
  "variants": {
    "axis=x": {
      "model": "glacialabyss:block/stripped_frosted_log_horizontal",
      "x": 90,
      "y": 90
    },
    "axis=y": {
      "model": "glacialabyss:block/stripped_frosted_log"
    },
    "axis=z": {
      "model": "glacialabyss:block/stripped_frosted_log_horizontal",
      "x": 90
    }
  }
}