{
  "variants": {
    "berries=false": {
      "model": "glacialabyss:block/wither_berry_vine_plant"
    },
    "berries=true": {
      "model": "glacialabyss:block/wither_berry_vine_plant_lit"
    }
  }
}