{
  "parent": "minecraft:block/stairs",
  "textures": {
    "bottom": "glacialabyss:block/frosted_planks",
    "top": "glacialabyss:block/frosted_planks",
    "side": "glacialabyss:block/frosted_planks"
  }
}