{
  "type": "glacialabyss:glacial_abyss_type",
  "generator": {
    "biome_source": {
      "biomes": [
        {
          "parameters": {
            "erosion": [
              -1.0,
              -0.2225
            ],
            "depth": 0.0,
            "weirdness": [
              -1.0,
              -0.93333334
            ],
            "offset": 0.0,
            "temperature": [
              -0.45,
              -0.15
            ],
            "humidity": [
              -1.0,
              -0.3
            ],
            "continentalness": [
              -0.1,
              0.03
            ]
          },
          "biome":  "glacialabyss:abyssal_plains"
        },
        {
          "parameters": {
            "erosion": [
              -1.0,
              -0.375
            ],
            "depth": 0.0,
            "weirdness": [
              -1.0,
              -0.93333334
            ],
            "offset": 0.0,
            "temperature": [
              -0.15,
              0.15
            ],
            "humidity": [
              0.1,
              0.3
            ],
            "continentalness": [
              0.03,
              1.0
            ]
          },
          "biome": "glacialabyss:frosted_forest"
        },
        {
          "parameters": {
            "erosion": [
              -1.0,
              -0.2225
            ],
            "depth": 0.0,
            "weirdness": [
              -1.0,
              -0.93333334
            ],
            "offset": 0.0,
            "temperature": [
              -0.45,
              -0.15
            ],
            "humidity": [
              -0.1,
              0.1
            ],
            "continentalness": [
              -0.1,
              0.03
            ]
          },
          "biome": "glacialabyss:haunted_forest"
        }
      ],
      "type": "minecraft:multi_noise"
    },
    "seed": 0,
    "settings": "glacialabyss:glacial_abyss_noise",
    "type": "minecraft:noise"
  }
}