{
  "parent": "item/generated",
  "textures": {
    "layer0": "glacialabyss:item/cryogenic_key_mold"
  },
  "overrides": [
    {
      "predicate": {
        "shape": 1
      },
      "model": "glacialabyss:item/cryogenic_key_mold_crystal"
    }
  ]
}